…
    ## 
    ## -- Column specification --------------------------------------------------------
    ## cols(
    ##   X1 = col_character(),
    ##   X2 = col_double()
    ## )

    ## 
    ## -- Column specification --------------------------------------------------------
    ## cols(
    ##   X1 = col_double(),
    ##   X2 = col_character()
    ## )

    ## # A tibble: 32 x 2
    ##    X1              X2            
    ##    <chr>           <chr>         
    ##  1 Simulation_Name work_shop_    
    ##  2 soil_file       soilROTH.txt  
    ##  3 meteo_ec_csv    csv_inputs.csv
    ##  4 t               t             
    ##  5 Rin             Rin_DWD       
    ##  6 Rli             Rli_DWD       
    ##  7 p               p_DWD         
    ##  8 Ta              Ta_DWD        
    ##  9 u               ws_DWD        
    ## 10 ea              <NA>          
    ## 11 RH              RH_DWD        
    ## 12 tts             tts           
    ## 13 tto             <NA>          
    ## 14 psi             psi           
    ## 15 Cab             <NA>          
    ## 16 Cca             <NA>          
    ## 17 Cdm             <NA>          
    ## 18 Cw              <NA>          
    ## 19 Cs              <NA>          
    ## 20 Cant            <NA>          
    ## # ... with 12 more rows
…
    ## 
    ## -- Column specification --------------------------------------------------------
    ## cols(
    ##   X1 = col_character(),
    ##   X2 = col_double()
    ## )

    ## 
    ## -- Column specification --------------------------------------------------------
    ## cols(
    ##   X1 = col_double(),
    ##   X2 = col_character()
    ## )

    ## # A tibble: 89 x 2
    ##    X1                   X2
    ##    <chr>             <dbl>
    ##  1 PROSPECT         NA    
    ##  2 Cab              40    
    ##  3 Cca              10    
    ##  4 Cdm               0.012
    ##  5 Cw                0.009
    ##  6 Cs                0    
    ##  7 Cant              1    
    ##  8 Cp                0    
    ##  9 Cbc               0    
    ## 10 N                 1.5  
    ## 11 rho_thermal       0.01 
    ## 12 tau_thermal       0.01 
    ## 13 <NA>             NA    
    ## 14 Leaf_Biochemical NA    
    ## 15 Vcmax25          60    
    ## 16 BallBerrySlope    8    
    ## 17 BallBerry0        0.01 
    ## 18 Type              0    
    ## 19 kV                0.64 
    ## 20 Rdparam           0.015
    ## # ... with 69 more rows
…
